Accessing the National Weather Service API
…
Parse the Forecast

forecast_tbl <- tibble(json = forecast_json$properties$periods) |>
  unnest_wider(json) |>
  unnest_wider(probabilityOfPrecipitation, names_sep = "_") |>
  unnest_wider(dewpoint, names_sep = "_") |>
  unnest_wider(relativeHumidity, names_sep = "_") |>
  mutate(
    startTime = as_datetime(startTime),
    endTime = as_datetime(endTime)
  )
forecast_tbl

# A tibble: 156 × 19
   number name  startTime           endTime             isDaytime temperature
    <int> <chr> <dttm>              <dttm>              <lgl>           <int>
 1      1 ""    2024-12-16 15:00:00 2024-12-16 16:00:00 TRUE               44
 2      2 ""    2024-12-16 16:00:00 2024-12-16 17:00:00 TRUE               45
 3      3 ""    2024-12-16 17:00:00 2024-12-16 18:00:00 TRUE               44
 4      4 ""    2024-12-16 18:00:00 2024-12-16 19:00:00 TRUE               44
 5      5 ""    2024-12-16 19:00:00 2024-12-16 20:00:00 TRUE               45
 6      6 ""    2024-12-16 20:00:00 2024-12-16 21:00:00 TRUE               45
 7      7 ""    2024-12-16 21:00:00 2024-12-16 22:00:00 TRUE               46
 8      8 ""    2024-12-16 22:00:00 2024-12-16 23:00:00 TRUE               46
 9      9 ""    2024-12-16 23:00:00 2024-12-17 00:00:00 FALSE              47
10     10 ""    2024-12-17 00:00:00 2024-12-17 01:00:00 FALSE              48
# ℹ 146 more rows
# ℹ 13 more variables: temperatureUnit <chr>, temperatureTrend <chr>,
#   probabilityOfPrecipitation_unitCode <chr>,
#   probabilityOfPrecipitation_value <int>, dewpoint_unitCode <chr>,
#   dewpoint_value <dbl>, relativeHumidity_unitCode <chr>,
#   relativeHumidity_value <int>, windSpeed <chr>, windDirection <chr>,
#   icon <chr>, shortForecast <chr>, detailedForecast <chr>
…
